INDEX VERSION 1.126+C:\Users\David\workspace\.metadata\.plugins\org.eclipse.jdt.core
928642238.index
4155206848.index
2238984013.index
3128435485.index
815586039.index
3850368495.index
182358800.index
656629143.index
1372432843.index
1299022128.index
1498219845.index
2757372121.index
1064382644.index
1450016403.index
30765161.index
2764806688.index
1833962136.index
4108727661.index
305854171.index
1931981404.index
3974580528.index
1199155734.index
163172794.index
1697886153.index
3133528496.index
2936302840.index
3698955040.index
3065916431.index
1995173708.index
3083196014.index
3760222823.index
4041092966.index
2692501295.index
1115467115.index
